{
    "rules":[
        {
            "type":"PATH",
            "match":"test/.*",
            "reviewers":[
                "devrel-cla-bot"
            ]
        },
        {
            "type":"SUPERVISOR",
            "reviewers":[
                "devrel-cla-bot"
            ]
        }
    ]
}